Introduction to R package copulaSim
…
## Simulate 1th Dataset
## p.value for energy test: 0.9030
## Compelete simulating 1th Dataset in 0.700 seconds

## Obtain the simulated long-form dataset
simu_S1$data.simul

## # A tibble: 250 x 6
##       id   arm col.num col.name data.sim sim.id
##    <dbl> <dbl>   <dbl> <chr>       <dbl>  <int>
##  1     1     1       1 time_1      10.5       1
##  2     2     1       1 time_1       8.74      1
##  3     3     1       1 time_1      11.2       1
##  4     4     1       1 time_1      11.2       1
##  5     5     1       1 time_1       8.98      1
##  6     6     1       1 time_1       9.44      1
##  7     7     1       1 time_1      11.3       1
##  8     8     1       1 time_1      10.1       1
##  9     9     1       1 time_1       8.19      1
## 10    10     1       1 time_1       9.64      1
## # ... with 240 more rows
## # i Use `print(n = ...)` to see more rows
…
newARM <- new.arm.copula.sim(data.input = test_data2[,-c(1,2)], 
                             id.vec = test_data2$id,
                             arm.vec = test_data2$arm, 
                             n.patient = 100 , 
                             n.simulation = 1, 
                             seed = 2022,
                             shift.vec.list = list(c(2.5,2.55,2.6), c(4.5,4.55,4.6)),
                             verbose = FALSE)

## Obtain the simulated long-form dataset
newARM$data.simul

## # A tibble: 900 x 6
##       id   arm col.num col.name data.sim sim.id
##    <dbl> <dbl>   <dbl> <chr>       <dbl>  <int>
##  1     1     1       1 time_1       9.71      1
##  2     2     1       1 time_1       9.61      1
##  3     3     1       1 time_1       8.62      1
##  4     4     1       1 time_1      11.6       1
##  5     5     1       1 time_1       9.77      1
##  6     6     1       1 time_1       9.72      1
##  7     7     1       1 time_1       8.79      1
##  8     8     1       1 time_1      10.3       1
##  9     9     1       1 time_1      10.3       1
## 10    10     1       1 time_1       8.87      1
## # ... with 890 more rows
## # i Use `print(n = ...)` to see more rows
…
